{
  "currentStage": 0,
  "id": "P",
  "skip": false,
  "skipStock": false,
  "canBeUsedIn2": false,
  "stage": [
    {
      "bonus": {
        "engin": 0,
        "potion": 0
      },
      "hidden": false,
      "id": 0,
      "name": "Objectif de production",
      "pivot": [
        {
          "cerveau": 1,
          "potion": 1,
          "rouage": 1,
          "danger": 0
        }
      ],
      "resources": null,
      "return": null,
      "score": 0,
      "special": null,
      "stock": null,
      "victory": null
    },
    {
      "bonus": {
        "engin": 0,
        "potion": 0
      },
      "hidden": false,
      "id": 1,
      "name": "Objectif de production",
      "pivot": null,
      "resources": null,
      "return": [
        {
          "cerveau": 2,
          "potion": 1,
          "rouage": 1,
          "danger": 0
        }
      ],
      "score": 0,
      "special": null,
      "stock": null,
      "victory": null
    },
    {
      "bonus": {
        "engin": 0,
        "potion": 0
      },
      "hidden": false,
      "id": 2,
      "name": "Objectif de production",
      "pivot": null,
      "resources": null,
      "return": null,
      "score": 0,
      "special": null,
      "stock": null,
      "victory": [
        {
          "cerveau": 3,
          "potion": 3,
          "rouage": 3,
          "danger": 0
        }
      ]
    },
    {
      "bonus": {
        "engin": 0,
        "potion": 0
      },
      "hidden": false,
      "id": 3,
      "name": "Objectif de production",
      "pivot": [
        {
          "cerveau": 2,
          "potion": 2,
          "rouage": 2,
          "danger": 0
        }
      ],
      "resources": null,
      "return": null,
      "score": 0,
      "special": null,
      "stock": null,
      "victory": null
    }
  ]
}
